…
``` r
Long <- all7 %>%
  pivot_longer(a_memorig:g_vote6, names_to = "variable", values_to = "value") %>%
  separate(variable, into = c("wave", "variable"), sep = "_", extra = "merge") %>%
  pivot_wider(names_from = variable, values_from = value)
  
Long
```

    ## # A tibble: 584,234 x 6
    ##        pidp wave  memorig sex_dv age_dv vote6
    ##       <int> <chr>   <int>  <int>  <int> <int>
    ##  1 68001367 a           1      1     39     3
    ##  2 68001367 b          NA     NA     NA    NA
    ##  3 68001367 c          NA     NA     NA    NA
    ##  4 68001367 d          NA     NA     NA    NA
    ##  5 68001367 e          NA     NA     NA    NA
    ##  6 68001367 f          NA     NA     NA    NA
    ##  7 68001367 g          NA     NA     NA    NA
    ##  8 68004087 a           1      1     59     2
    ##  9 68004087 b           1      1     60     2
    ## 10 68004087 c           1      1     61     2
    ## # … with 584,224 more rows
…
Polstab$delta<-abs(Polstab$delta)

Polstab<- Polstab %>%
  group_by(pidp) %>%
  mutate(
    sumdelta = sum(delta)
  )

Polstab
```

    ## # A tibble: 103,747 x 8
    ## # Groups:   pidp [14,821]
    ##        pidp wave  memorig sex_dv age_dv vote6 delta sumdelta
    ##       <int> <chr>   <int> <chr>   <int> <dbl> <dbl>    <dbl>
    ##  1 68004087 a           1 male       59     2     0        2
    ##  2 68004087 b           1 male       60     2     0        2
    ##  3 68004087 c           1 male       61     2     0        2
    ##  4 68004087 d           1 male       62     1     1        2
    ##  5 68004087 e           1 male       63     2     1        2
    ##  6 68004087 f           1 male       64     2     0        2
    ##  7 68004087 g           1 male       65     2     0        2
    ##  8 68006127 a           1 female     39     4     0        0
    ##  9 68006127 b           1 female     40     4     0        0
    ## 10 68006127 c           1 female     41     4     0        0
    ## # … with 103,737 more rows
…
    ##   female     male 
    ## 2.494727 2.527760

``` r
avPolStabage <- Polstab %>%
  filter(wave=="a")%>%
  group_by(age_dv) %>%
  summarise(sumdelta = mean(sumdelta, na.rm=TRUE))
avPolStabage
```

    ## # A tibble: 78 x 2
    ##    age_dv sumdelta
    ##     <int>    <dbl>
    ##  1     15     2   
    ##  2     16     2.78
    ##  3     17     2.55
    ##  4     18     2.83
    ##  5     19     2.82
    ##  6     20     2.39
    ##  7     21     3.08
    ##  8     22     2.59
    ##  9     23     2.42
    ## 10     24     2.15
    ## # … with 68 more rows
…
